\relax 
\PgInfo{question@1}{1}
\PgInfo{question1@object1}{1}
\newlabel{question@1}{{1}{1}}
\PgInfo{part@1@1}{1}
\PgInfo{question1@object2}{1}
\newlabel{part@1@1}{{a}{1}}
\PgInfo{part@1@2}{1}
\PgInfo{question1@object3}{1}
\newlabel{part@1@2}{{b}{1}}
\PgInfo{subpart@1@2@1}{1}
\PgInfo{question1@object4}{1}
\newlabel{subpart@1@2@1}{{i}{1}}
\PgInfo{subpart@1@2@2}{1}
\PgInfo{question1@object5}{1}
\newlabel{subpart@1@2@2}{{ii}{1}}
\PgInfo{subpart@1@2@3}{1}
\PgInfo{question1@object6}{1}
\newlabel{subpart@1@2@3}{{iii}{1}}
\gdef\pointsofq@i{0}
\gdef\bonuspointsofq@i{0}
\PgInfo{part@1@3}{2}
\PgInfo{question1@object7}{2}
\newlabel{part@1@3}{{c}{2}}
\PgInfo{part@1@4}{2}
\PgInfo{question1@object8}{2}
\newlabel{part@1@4}{{d}{2}}
\PgInfo{part@1@5}{2}
\PgInfo{question1@object9}{2}
\newlabel{part@1@5}{{e}{2}}
\gdef\exam@lastpage{2}
\gdef\exam@lastcoverpage{0}
\gdef\exam@totalpages{2}
\gdef\exam@numpoints{0}
\gdef\exam@numbonuspoints{0}
\gdef\exam@numquestions{1}
\gdef\exam@numparts{5}
\gdef\exam@numsubparts{3}
\gdef\exam@numsubsubparts{0}
\gdef\lastpage@withpoints{0}
\gdef\lastpage@withbonuspoints{0}
