\relax 
\@input{ap_phys_c_mech_1997_q3.aux}
\PgInfo{question@1}{1}
\PgInfo{question1@object1}{1}
\PgInfo{part@1@1}{1}
\PgInfo{question1@object2}{1}
\PgInfo{part@1@2}{1}
\PgInfo{question1@object3}{1}
\PgInfo{part@1@3}{1}
\PgInfo{question1@object4}{1}
\PgInfo{part@1@4}{2}
\PgInfo{question1@object5}{2}
\PgInfo{part@1@5}{2}
\PgInfo{question1@object6}{2}
\PgInfo{subpart@1@5@1}{2}
\PgInfo{question1@object7}{2}
\PgInfo{subpart@1@5@2}{2}
\PgInfo{question1@object8}{2}
\@input{ap_phys_c_mech_1989_q1.aux}
\gdef\pointsofq@i{0}
\gdef\bonuspointsofq@i{0}
\PgInfo{question@2}{3}
\PgInfo{question2@object1}{3}
\PgInfo{part@2@1}{3}
\PgInfo{question2@object2}{3}
\PgInfo{part@2@2}{3}
\PgInfo{question2@object3}{3}
\PgInfo{part@2@3}{3}
\PgInfo{question2@object4}{3}
\PgInfo{part@2@4}{4}
\PgInfo{question2@object5}{4}
\PgInfo{part@2@5}{4}
\PgInfo{question2@object6}{4}
\@input{ap_phys_c_mech_1994_q3.aux}
\gdef\pointsofq@ii{0}
\gdef\bonuspointsofq@ii{0}
\PgInfo{question@3}{5}
\PgInfo{question3@object1}{5}
\PgInfo{part@3@1}{5}
\PgInfo{question3@object2}{5}
\PgInfo{part@3@2}{5}
\PgInfo{question3@object3}{5}
\PgInfo{part@3@3}{6}
\PgInfo{question3@object4}{6}
\PgInfo{part@3@4}{6}
\PgInfo{question3@object5}{6}
\PgInfo{part@3@5}{7}
\PgInfo{question3@object6}{7}
\PgInfo{part@3@6}{7}
\PgInfo{question3@object7}{7}
\gdef\pointsofq@iii{0}
\gdef\bonuspointsofq@iii{0}
\gdef\exam@lastpage{7}
\gdef\exam@lastcoverpage{0}
\gdef\exam@totalpages{7}
\gdef\exam@numpoints{0}
\gdef\exam@numbonuspoints{0}
\gdef\exam@numquestions{3}
\gdef\exam@numparts{16}
\gdef\exam@numsubparts{2}
\gdef\exam@numsubsubparts{0}
\gdef\lastpage@withpoints{0}
\gdef\lastpage@withbonuspoints{0}
